pers.id,pers.firm_id,pers.dadr_id,pers.radr_id,pers.post,pers.snaim,pers.naim,pers.dater,pers.pasp,pers.udost,pers.dtlf,pers.mtlf
1,2,4,1,Водитель,Желябьев,ы,2013-04-07,ы,ы,ы,ы
2,2,4,4,Водитель,Майданов,в,2013-04-11,в,в,в,в
3,2,4,4,Водитель,Будылин,о,2013-04-25,о,о,о,о
4,2,3,1,Водитель,Гущин,ваааа,2013-04-17,вппп,в,в,вооо
5,2,1,4,Водитель,Кузнецов,а,2013-05-23,аа,вв,аа,вв
6,2,1,4,Водитель,Евич,аапр,1992-05-12,ааа,ввв,ааа,ввв
7,2,4,1,Водитель,Подшивалов,аа,2013-05-22,а,а,а,а
